C:\Users\Aliz\Documents\NetBeansProjects\HR_1901_Swing\src\main\java\hu\braininghub\hr_1901\ConsoleReader.java
C:\Users\Aliz\Documents\NetBeansProjects\HR_1901_Swing\src\main\java\hu\braininghub\hr_1901\Application.java
C:\Users\Aliz\Documents\NetBeansProjects\HR_1901_Swing\src\main\java\hu\braininghub\hr_1901\HrDao.java
C:\Users\Aliz\Documents\NetBeansProjects\HR_1901_Swing\src\main\java\hu\braininghub\hr_1901\SwingView.java
