model\Model.class
filter\handlers\AgeLimitedFilter.class
controller\Controller.class
filter\handlers\SmallLetterConatinedFilter.class
filter\handlers\SizeLimited2MBFilter.class
view\View.class
view\SwingView.class
controller\ViewController.class
controller\FileController.class
controller\ModelController.class
model\FileStore.class
filter\handlers\Filter.class
Application.class
collector\FileCollector.class
filter\FilterAggregator.class
