C:\Users\Aliz\Documents\NetBeansProjects\EmployeeRepository\src\main\java\controller\Controller.java
C:\Users\Aliz\Documents\NetBeansProjects\EmployeeRepository\src\main\java\model\RegistryModel.java
C:\Users\Aliz\Documents\NetBeansProjects\EmployeeRepository\src\main\java\employee\Boss.java
C:\Users\Aliz\Documents\NetBeansProjects\EmployeeRepository\src\main\java\view\ConsoleView.java
C:\Users\Aliz\Documents\NetBeansProjects\EmployeeRepository\src\main\java\app\App.java
C:\Users\Aliz\Documents\NetBeansProjects\EmployeeRepository\src\main\java\model\Model.java
C:\Users\Aliz\Documents\NetBeansProjects\EmployeeRepository\src\main\java\view\SwingView.java
C:\Users\Aliz\Documents\NetBeansProjects\EmployeeRepository\src\main\java\employee\Worker.java
C:\Users\Aliz\Documents\NetBeansProjects\EmployeeRepository\src\main\java\employee\WorkerFactory.java
C:\Users\Aliz\Documents\NetBeansProjects\EmployeeRepository\src\main\java\view\View.java
C:\Users\Aliz\Documents\NetBeansProjects\EmployeeRepository\src\main\java\controller\MyController.java
