C:\Users\Aliz\Documents\NetBeansProjects\FileFilters_0501\src\main\java\filefilter\Application.java
C:\Users\Aliz\Documents\NetBeansProjects\FileFilters_0501\src\main\java\filter\handlers\SmallLetterConatinedFilter.java
C:\Users\Aliz\Documents\NetBeansProjects\FileFilters_0501\src\main\java\filter\handlers\Filter.java
C:\Users\Aliz\Documents\NetBeansProjects\FileFilters_0501\src\main\java\reader\ConsoleReader.java
C:\Users\Aliz\Documents\NetBeansProjects\FileFilters_0501\src\main\java\filter\handlers\SizeLimited2MBFilter.java
C:\Users\Aliz\Documents\NetBeansProjects\FileFilters_0501\src\main\java\collector\FileCollector.java
C:\Users\Aliz\Documents\NetBeansProjects\FileFilters_0501\src\main\java\filter\FilterAggregator.java
