C:\Users\Aliz\Documents\NetBeansProjects\EJB_Payara_3101\src\main\java\hu\braininghub\repository\EmployeeDao.java
C:\Users\Aliz\Documents\NetBeansProjects\EJB_Payara_3101\src\main\java\hu\braininghub\service\EmployeeService.java
C:\Users\Aliz\Documents\NetBeansProjects\EJB_Payara_3101\src\main\java\hu\braininghub\servlet\EmployeeServlet.java
